<svg width="24" height="24" viewBox="0 0 24 24" fill="none" xmlns="http://www.w3.org/2000/svg">
<path fill-rule="evenodd" clip-rule="evenodd" d="M3.99994 10C3.99994 9.44772 4.44766 9 4.99994 9H14.9999C15.5522 9 15.9999 9.44772 15.9999 10C15.9999 10.5523 15.5522 11 14.9999 11H4.99994C4.44766 11 3.99994 10.5523 3.99994 10ZM3.99994 6C3.99994 5.44772 4.44766 5 4.99994 5H18.9999C19.5522 5 19.9999 5.44772 19.9999 6C19.9999 6.55228 19.5522 7 18.9999 7H4.99994C4.44766 7 3.99994 6.55228 3.99994 6ZM3.99994 14C3.99994 13.4477 4.44766 13 4.99994 13H18.9999C19.5522 13 19.9999 13.4477 19.9999 14C19.9999 14.5523 19.5522 15 18.9999 15H4.99994C4.44766 15 3.99994 14.5523 3.99994 14ZM3.99994 18C3.99994 17.4477 4.44766 17 4.99994 17H11.9999C12.5522 17 12.9999 17.4477 12.9999 18C12.9999 18.5523 12.5522 19 11.9999 19H4.99994C4.44766 19 3.99994 18.5523 3.99994 18Z" fill="black"/>
</svg>
